{
    "testName": "Functional.fuego_check_tables",
    "specs": {
        "default": {
            "TESTCASE_SET": "1"
        },
        "altset": {
            "TESTCASE_SET": "2"
        }
    }
}

