{
    "$schema":"http://json-schema.org/schema#",
    "id":"http://www.fuegotest.org/download/fuego_criteria_schema_v1.0.json",
    "title":"criteria",
    "description":"Pass criteria for a test suite",
    "definitions":{
        "criterion":{
            "title":"criterion ",
            "description":"Criterion for deciding if a test (test_set, test_case or measure) passes",
            "type":"object",
            "properties":{
                "tguid":{
                    "type":"string",
                    "description":"unique identifier of a test (e.g.: Sequential_Output.CPU)"
                },
                "min_pass":{
                    "type":"number",
                    "description":"Minimum number of tests that must pass"
                },
                "max_fail":{
                    "type":"number",
                    "description":"Maximum number of tests that can fail"
                },
                "must_pass_list":{
                    "type":"array",
                    "description":"Detailed list of tests that must pass",
                    "items":{
                        "type":"string"
                    }
                },
                "fail_ok_list":{
                    "type":"array",
                    "description":"Detailed list of tests that can fail",
                    "items":{
                        "type":"string"
                    }
                },
                "reference":{
                    "type":"object",
                    "description":"Reference measure that is compared to a measure to decide the status",
                    "properties":{
                        "value":{
                            "type":[
                                "string",
                                "number",
                                "integer"
                            ],
                            "description":"A value (often a threshold) to compare against"
                        },
                        "operator":{
                            "type":"string",
                            "description":"Type of operation for the value",
                            "enum":[
                                "eq",
                                "ne",
                                "gt",
                                "ge",
                                "lt",
                                "le"
                            ]
                        }
                    },
                    "required":[
                        "value",
                        "operator"
                    ]
                }
            },
            "required":[
                "tguid"
            ]
        }
    },
    "type":"object",
    "properties":{
        "schema_version":{
            "type":"string",
            "description":"The version number of this JSON schema",
            "enum":[
                "1.0"
            ]
        },
        "criteria":{
            "type":"array",
            "description":"A list of criterion items",
            "items":{
                "$ref":"#/definitions/criterion"
            }
        }
    },
    "required":[
        "schema_version",
        "criteria"
    ]
}
